S.No.,Vehicle Name,Vehicle Route,Route Cost,Vehicle Cost
1,XA,Hub to E,4,14
,,E to C,4,
,,C to Hub,6,
,,
2,XB,Hub to B,9,65
,,B to A,12,
,,A to D,28,
,,D to Hub,16,
,,
3,XC,No Need,0,0
,,
4,XD,No Need,0,0
,,
